{
  "project_info": {
    "project_number": "896077110687",
    "firebase_url": "https://super-map-4556d.firebaseio.com",
    "project_id": "super-map-4556d",
    "storage_bucket": "super-map-4556d.appspot.com"
  },
  "client": [
    {
      "client_info": {
        "mobilesdk_app_id": "1:896077110687:android:929af2f839a527c243b1aa",
        "android_client_info": {
          "package_name": "vn.edu.driverteam.govn"
        }
      },
      "oauth_client": [
        {
          "client_id": "896077110687-qf51elpoctbj0k8gkj22cf04q01najhj.apps.googleusercontent.com",
          "client_type": 3
        }
      ],
      "api_key": [
        {
          "current_key": "AIzaSyCqOKJCP_Tp1VXt6sGRPYvkK1fdwygXLHw"
        }
      ],
      "services": {
        "appinvite_service": {
          "other_platform_oauth_client": [
            {
              "client_id": "896077110687-o7mrvav7s7vrmkd0nudo6e28qmmdufqt.apps.googleusercontent.com",
              "client_type": 3
            },
            {
              "client_id": "896077110687-h0eupf4f28jpij0r26d1gi0ju4kotvam.apps.googleusercontent.com",
              "client_type": 2,
              "ios_info": {
                "bundle_id": "DriveSystemTeam.Maps"
              }
            }
          ]
        }
      }
    }
  ],
  "configuration_version": "1"
}